EESchema Schematic File Version 4
LIBS:SafetySwitch-cache
EELAYER 26 0
EELAYER END
$Descr A4 11693 8268
encoding utf-8
Sheet 1 1
Title ""
Date ""
Rev ""
Comp ""
Comment1 ""
Comment2 ""
Comment3 ""
Comment4 ""
$EndDescr
$Comp
L Timer:LM555 U101
U 1 1 5B70BE8B
P 5050 3150
F 0 "U101" H 5050 3728 50  0000 C CNN
F 1 "LM555" H 5050 3650 50  0000 C CNN
F 2 "Housings_DIP:DIP-8_W7.62mm_Socket_LongPads" H 5050 3150 50  0001 C CNN
F 3 "http://www.ti.com/lit/ds/symlink/lm555.pdf" H 5050 3150 50  0001 C CNN
	1    5050 3150
	1    0    0    -1  
$EndComp
$Comp
L Isolator:PC817 U102
U 1 1 5B70BF35
P 7200 2700
F 0 "U102" H 7200 3025 50  0000 C CNN
F 1 "PC817" H 7200 2934 50  0000 C CNN
F 2 "Housings_DIP:DIP-4_W7.62mm_Socket_LongPads" H 7000 2500 50  0001 L CIN
F 3 "http://www.soselectronic.cz/a_info/resource/d/pc817.pdf" H 7200 2700 50  0001 L CNN
	1    7200 2700
	-1   0    0    -1  
$EndComp
$Comp
L power:GND #PWR0102
U 1 1 5B70C2E0
P 5050 3550
F 0 "#PWR0102" H 5050 3300 50  0001 C CNN
F 1 "GND" H 5055 3377 50  0000 C CNN
F 2 "" H 5050 3550 50  0001 C CNN
F 3 "" H 5050 3550 50  0001 C CNN
	1    5050 3550
	1    0    0    -1  
$EndComp
$Comp
L Device:R R103
U 1 1 5B70C382
P 6100 3100
F 0 "R103" H 6170 3146 50  0000 L CNN
F 1 "100k" H 6170 3055 50  0000 L CNN
F 2 "Resistors_THT:R_Axial_DIN0207_L6.3mm_D2.5mm_P10.16mm_Horizontal" V 6030 3100 50  0001 C CNN
F 3 "~" H 6100 3100 50  0001 C CNN
	1    6100 3100
	1    0    0    -1  
$EndComp
$Comp
L Device:R R104
U 1 1 5B70C3BC
P 6250 2950
F 0 "R104" V 6043 2950 50  0000 C CNN
F 1 "1k" V 6134 2950 50  0000 C CNN
F 2 "Resistors_THT:R_Axial_DIN0207_L6.3mm_D2.5mm_P10.16mm_Horizontal" V 6180 2950 50  0001 C CNN
F 3 "~" H 6250 2950 50  0001 C CNN
	1    6250 2950
	0    1    1    0   
$EndComp
$Comp
L Device:CP C102
U 1 1 5B70C408
P 6100 3450
F 0 "C102" H 5982 3496 50  0000 R CNN
F 1 "1uF" H 5982 3405 50  0000 R CNN
F 2 "Capacitors_THT:CP_Radial_D5.0mm_P2.50mm" H 6138 3300 50  0001 C CNN
F 3 "~" H 6100 3450 50  0001 C CNN
	1    6100 3450
	-1   0    0    -1  
$EndComp
$Comp
L power:GND #PWR0103
U 1 1 5B70C42E
P 6100 3600
F 0 "#PWR0103" H 6100 3350 50  0001 C CNN
F 1 "GND" H 6105 3427 50  0000 C CNN
F 2 "" H 6100 3600 50  0001 C CNN
F 3 "" H 6100 3600 50  0001 C CNN
	1    6100 3600
	1    0    0    -1  
$EndComp
Wire Wire Line
	4550 2950 4550 2600
Wire Wire Line
	4550 2600 5750 2600
Wire Wire Line
	5750 3350 5550 3350
Wire Wire Line
	6100 3250 6100 3300
Wire Wire Line
	6100 2950 5550 2950
Connection ~ 6100 2950
Wire Wire Line
	4550 3350 4300 3350
Wire Wire Line
	4300 3350 4300 2750
Wire Wire Line
	4300 2750 5050 2750
$Comp
L power:+10V #PWR0104
U 1 1 5B70C605
P 4300 2550
F 0 "#PWR0104" H 4300 2400 50  0001 C CNN
F 1 "+10V" H 4315 2723 50  0000 C CNN
F 2 "" H 4300 2550 50  0001 C CNN
F 3 "" H 4300 2550 50  0001 C CNN
	1    4300 2550
	1    0    0    -1  
$EndComp
$Comp
L power:+10V #PWR0105
U 1 1 5B70C621
P 7550 1900
F 0 "#PWR0105" H 7550 1750 50  0001 C CNN
F 1 "+10V" H 7565 2073 50  0000 C CNN
F 2 "" H 7550 1900 50  0001 C CNN
F 3 "" H 7550 1900 50  0001 C CNN
	1    7550 1900
	1    0    0    -1  
$EndComp
$Comp
L power:GND #PWR0106
U 1 1 5B70C63B
P 7550 2100
F 0 "#PWR0106" H 7550 1850 50  0001 C CNN
F 1 "GND" H 7555 1927 50  0000 C CNN
F 2 "" H 7550 2100 50  0001 C CNN
F 3 "" H 7550 2100 50  0001 C CNN
	1    7550 2100
	1    0    0    -1  
$EndComp
$Comp
L Connector_Generic:Conn_01x03 J101
U 1 1 5B70C819
P 7750 2000
F 0 "J101" H 7830 2042 50  0000 L CNN
F 1 "Conn_01x03" H 7830 1951 50  0000 L CNN
F 2 "Connectors_Terminal_Blocks:TerminalBlock_bornier-3_P5.08mm" H 7750 2000 50  0001 C CNN
F 3 "~" H 7750 2000 50  0001 C CNN
	1    7750 2000
	1    0    0    -1  
$EndComp
$Comp
L Transistor_FET:2N7000 Q101
U 1 1 5B70C8D4
P 7400 3300
F 0 "Q101" H 7605 3346 50  0000 L CNN
F 1 "2N7000" H 7605 3255 50  0000 L CNN
F 2 "TO_SOT_Packages_THT:TO-92_Inline_Wide" H 7600 3225 50  0001 L CIN
F 3 "https://www.fairchildsemi.com/datasheets/2N/2N7000.pdf" H 7400 3300 50  0001 L CNN
	1    7400 3300
	1    0    0    -1  
$EndComp
$Comp
L Device:LED D101
U 1 1 5B70C970
P 7900 2950
F 0 "D101" V 7938 2832 50  0000 R CNN
F 1 "LED" V 7847 2832 50  0000 R CNN
F 2 "Connectors_Terminal_Blocks:TerminalBlock_bornier-2_P5.08mm" H 7900 2950 50  0001 C CNN
F 3 "~" H 7900 2950 50  0001 C CNN
	1    7900 2950
	0    -1   -1   0   
$EndComp
Wire Wire Line
	6400 2950 7200 2950
Wire Wire Line
	7200 2950 7200 3300
$Comp
L Device:R R105
U 1 1 5B70CBE0
P 7200 3450
F 0 "R105" H 7270 3496 50  0000 L CNN
F 1 "100k" H 7270 3405 50  0000 L CNN
F 2 "Resistors_THT:R_Axial_DIN0207_L6.3mm_D2.5mm_P10.16mm_Horizontal" V 7130 3450 50  0001 C CNN
F 3 "~" H 7200 3450 50  0001 C CNN
	1    7200 3450
	1    0    0    -1  
$EndComp
$Comp
L power:GND #PWR0107
U 1 1 5B70CC5C
P 7200 3600
F 0 "#PWR0107" H 7200 3350 50  0001 C CNN
F 1 "GND" H 7205 3427 50  0000 C CNN
F 2 "" H 7200 3600 50  0001 C CNN
F 3 "" H 7200 3600 50  0001 C CNN
	1    7200 3600
	1    0    0    -1  
$EndComp
Wire Wire Line
	7500 3500 7500 3600
Wire Wire Line
	7500 3600 7200 3600
Wire Wire Line
	7500 2800 7500 3100
Wire Wire Line
	7500 3100 7900 3100
Connection ~ 7500 3100
Wire Wire Line
	7500 2600 7500 2000
Wire Wire Line
	7500 2000 7550 2000
$Comp
L Device:R R106
U 1 1 5B70D39A
P 7900 2650
F 0 "R106" H 7830 2604 50  0000 R CNN
F 1 "1k" H 7830 2695 50  0000 R CNN
F 2 "Resistors_THT:R_Axial_DIN0207_L6.3mm_D2.5mm_P10.16mm_Horizontal" V 7830 2650 50  0001 C CNN
F 3 "~" H 7900 2650 50  0001 C CNN
	1    7900 2650
	-1   0    0    1   
$EndComp
$Comp
L power:+10V #PWR0108
U 1 1 5B70D3E8
P 7900 2500
F 0 "#PWR0108" H 7900 2350 50  0001 C CNN
F 1 "+10V" H 7915 2673 50  0000 C CNN
F 2 "" H 7900 2500 50  0001 C CNN
F 3 "" H 7900 2500 50  0001 C CNN
	1    7900 2500
	1    0    0    -1  
$EndComp
$Comp
L Device:R R102
U 1 1 5B70D43A
P 5900 2600
F 0 "R102" V 5693 2600 50  0000 C CNN
F 1 "10k" V 5784 2600 50  0000 C CNN
F 2 "Resistors_THT:R_Axial_DIN0207_L6.3mm_D2.5mm_P10.16mm_Horizontal" V 5830 2600 50  0001 C CNN
F 3 "~" H 5900 2600 50  0001 C CNN
	1    5900 2600
	0    1    1    0   
$EndComp
Connection ~ 5750 2600
Wire Wire Line
	6050 2600 6900 2600
Wire Wire Line
	6900 2800 6900 3200
$Comp
L power:GND #PWR0109
U 1 1 5B70D7B5
P 6900 3200
F 0 "#PWR0109" H 6900 2950 50  0001 C CNN
F 1 "GND" H 6905 3027 50  0000 C CNN
F 2 "" H 6900 3200 50  0001 C CNN
F 3 "" H 6900 3200 50  0001 C CNN
	1    6900 3200
	1    0    0    -1  
$EndComp
$Comp
L Device:R R101
U 1 1 5B70D7D6
P 5750 2450
F 0 "R101" H 5820 2496 50  0000 L CNN
F 1 "10k" H 5820 2405 50  0000 L CNN
F 2 "Resistors_THT:R_Axial_DIN0207_L6.3mm_D2.5mm_P10.16mm_Horizontal" V 5680 2450 50  0001 C CNN
F 3 "~" H 5750 2450 50  0001 C CNN
	1    5750 2450
	1    0    0    -1  
$EndComp
$Comp
L power:+10V #PWR0110
U 1 1 5B70D81A
P 5750 2300
F 0 "#PWR0110" H 5750 2150 50  0001 C CNN
F 1 "+10V" H 5765 2473 50  0000 C CNN
F 2 "" H 5750 2300 50  0001 C CNN
F 3 "" H 5750 2300 50  0001 C CNN
	1    5750 2300
	1    0    0    -1  
$EndComp
$Comp
L Device:C C101
U 1 1 5B70DA1C
P 4550 3300
F 0 "C101" H 4432 3346 50  0000 R CNN
F 1 "1uF" H 4432 3255 50  0000 R CNN
F 2 "Capacitors_THT:C_Disc_D4.7mm_W2.5mm_P5.00mm" H 4588 3150 50  0001 C CNN
F 3 "~" H 4550 3300 50  0001 C CNN
	1    4550 3300
	-1   0    0    -1  
$EndComp
$Comp
L power:GND #PWR0111
U 1 1 5B70DA82
P 4550 3450
F 0 "#PWR0111" H 4550 3200 50  0001 C CNN
F 1 "GND" H 4555 3277 50  0000 C CNN
F 2 "" H 4550 3450 50  0001 C CNN
F 3 "" H 4550 3450 50  0001 C CNN
	1    4550 3450
	1    0    0    -1  
$EndComp
$Comp
L Device:CP C103
U 1 1 5B70DB8B
P 7150 1950
F 0 "C103" H 7032 1996 50  0000 R CNN
F 1 "1uF" H 7032 1905 50  0000 R CNN
F 2 "Capacitors_THT:CP_Radial_D5.0mm_P2.50mm" H 7188 1800 50  0001 C CNN
F 3 "~" H 7150 1950 50  0001 C CNN
	1    7150 1950
	-1   0    0    -1  
$EndComp
$Comp
L power:GND #PWR0101
U 1 1 5B70DC6F
P 7150 2100
F 0 "#PWR0101" H 7150 1850 50  0001 C CNN
F 1 "GND" H 7155 1927 50  0000 C CNN
F 2 "" H 7150 2100 50  0001 C CNN
F 3 "" H 7150 2100 50  0001 C CNN
	1    7150 2100
	1    0    0    -1  
$EndComp
$Comp
L power:+10V #PWR0112
U 1 1 5B70DC96
P 7150 1800
F 0 "#PWR0112" H 7150 1650 50  0001 C CNN
F 1 "+10V" H 7165 1973 50  0000 C CNN
F 2 "" H 7150 1800 50  0001 C CNN
F 3 "" H 7150 1800 50  0001 C CNN
	1    7150 1800
	1    0    0    -1  
$EndComp
Connection ~ 4300 2750
Connection ~ 7200 3300
Connection ~ 7200 3600
Text Notes -350 4750 0    50   ~ 0
http://www.falstad.com/circuit/circuitjs.html?cct=$+1+0.000005+35.60246606707791+56+5+50%0A165+224+208+336+208+0+0%0Aw+176+176+288+176+0%0AR+288+176+288+112+0+0+40+8+0+0+0.5%0AO+352+272+416+272+0%0Ar+176+176+176+304+0+10000%0Aw+176+304+176+336+0%0Aw+176+336+224+336+0%0Aw+224+304+176+304+2%0As+64+16+64+112+0+1+true%0Aw+176+432+400+432+0%0Ac+400+432+400+480+0+0.000001+7.207850133855907%0Ag+496+416+496+464+0%0Aw+352+272+400+336+0%0Ar+400+336+400+432+0+100000%0Ag+640+288+640+352+0%0Ag+400+480+400+496+0%0AR+496+0+496+-48+0+0+40+8+0+0+0.5%0Ar+448+336+400+336+0+1000%0Af+448+336+496+336+0+1.5+0.02%0Ar+448+336+448+416+0+100000%0Aw+448+416+496+416+0%0Aw+496+384+496+352+0%0As+496+64+496+144+0+0+false%0Ar+496+0+496+64+0+2000%0Aw+496+144+496+208+1%0A162+448+160+448+256+1+2.1024259+1+0+0+0.01%0A178+528+272+608+272+0+1+0.0002+7.999839759503107e-8+0.05+1000000+0.002+1%0Aw+496+384+496+416+0%0Aw+144+336+176+336+0%0Aw+496+320+528+320+0%0Aw+528+304+496+304+0%0Aw+528+272+528+240+0%0Aw+528+240+640+240+0%0Aw+608+288+640+288+0%0Aw+640+240+720+240+0%0Aw+720+240+720+528+0%0Aw+720+528+80+528+0%0Aw+80+336+144+336+0%0Ar+80+336+80+528+0+10000%0Aw+496+208+496+304+0%0Aw+448+256+496+320+0%0Ar+448+160+288+176+0+1000%0As+176+336+176+432+0+0+false%0Ao+3+64+0+4102+0.0000762939453125+0.00009765625+0+1%0Ao+10+64+0+4099+10+0.00009765625+1+2+10+3%0A
$Comp
L Connector_Generic:Conn_01x01 J102
U 1 1 5B7105DF
P 4900 1250
F 0 "J102" H 4980 1292 50  0000 L CNN
F 1 "Conn_01x01" H 4980 1201 50  0000 L CNN
F 2 "Mounting_Holes:MountingHole_3.2mm_M3" H 4900 1250 50  0001 C CNN
F 3 "~" H 4900 1250 50  0001 C CNN
	1    4900 1250
	1    0    0    -1  
$EndComp
$Comp
L Connector_Generic:Conn_01x01 J103
U 1 1 5B711299
P 4900 1400
F 0 "J103" H 4980 1442 50  0000 L CNN
F 1 "Conn_01x01" H 4980 1351 50  0000 L CNN
F 2 "Mounting_Holes:MountingHole_3.2mm_M3" H 4900 1400 50  0001 C CNN
F 3 "~" H 4900 1400 50  0001 C CNN
	1    4900 1400
	1    0    0    -1  
$EndComp
$Comp
L Connector_Generic:Conn_01x01 J104
U 1 1 5B7112CF
P 4900 1550
F 0 "J104" H 4980 1592 50  0000 L CNN
F 1 "Conn_01x01" H 4980 1501 50  0000 L CNN
F 2 "Mounting_Holes:MountingHole_3.2mm_M3" H 4900 1550 50  0001 C CNN
F 3 "~" H 4900 1550 50  0001 C CNN
	1    4900 1550
	1    0    0    -1  
$EndComp
$Comp
L Connector_Generic:Conn_01x01 J105
U 1 1 5B711303
P 4900 1700
F 0 "J105" H 4980 1742 50  0000 L CNN
F 1 "Conn_01x01" H 4980 1651 50  0000 L CNN
F 2 "Mounting_Holes:MountingHole_3.2mm_M3" H 4900 1700 50  0001 C CNN
F 3 "~" H 4900 1700 50  0001 C CNN
	1    4900 1700
	1    0    0    -1  
$EndComp
NoConn ~ 4700 1700
NoConn ~ 4700 1550
NoConn ~ 4700 1400
NoConn ~ 4700 1250
Wire Wire Line
	5750 2600 5750 3350
$Comp
L Connector_Generic:Conn_01x02 J107
U 1 1 5B7147F8
P 5850 3550
F 0 "J107" H 5930 3592 50  0000 L CNN
F 1 "Switch" H 5930 3501 50  0000 L CNN
F 2 "Connectors_Terminal_Blocks:TerminalBlock_bornier-2_P5.08mm" H 5850 3550 50  0001 C CNN
F 3 "~" H 5850 3550 50  0001 C CNN
	1    5850 3550
	0    1    1    0   
$EndComp
Connection ~ 5750 3350
$Comp
L Transistor_FET:2N7000 Q102
U 1 1 5B71731E
P 2300 2800
F 0 "Q102" H 2505 2846 50  0000 L CNN
F 1 "2N7000" H 2505 2755 50  0000 L CNN
F 2 "TO_SOT_Packages_THT:TO-92_Inline_Wide" H 2500 2725 50  0001 L CIN
F 3 "https://www.fairchildsemi.com/datasheets/2N/2N7000.pdf" H 2300 2800 50  0001 L CNN
	1    2300 2800
	1    0    0    -1  
$EndComp
$Comp
L Transistor_FET:2N7000 Q103
U 1 1 5B717408
P 3300 2750
F 0 "Q103" H 3505 2796 50  0000 L CNN
F 1 "2N7000" H 3505 2705 50  0000 L CNN
F 2 "TO_SOT_Packages_THT:TO-92_Inline_Wide" H 3500 2675 50  0001 L CIN
F 3 "https://www.fairchildsemi.com/datasheets/2N/2N7000.pdf" H 3300 2750 50  0001 L CNN
	1    3300 2750
	1    0    0    -1  
$EndComp
Wire Wire Line
	5850 3350 6100 3350
Wire Wire Line
	6100 3350 6100 3300
Connection ~ 6100 3300
Wire Wire Line
	4550 2950 3400 2950
Connection ~ 4550 2950
Wire Wire Line
	2900 2900 2900 2950
Wire Wire Line
	3400 2550 4300 2550
Wire Wire Line
	4300 2550 4300 2750
Connection ~ 4300 2550
$Comp
L Device:R R108
U 1 1 5B718772
P 3250 2550
F 0 "R108" V 3043 2550 50  0000 C CNN
F 1 "10k" V 3134 2550 50  0000 C CNN
F 2 "Resistors_THT:R_Axial_DIN0207_L6.3mm_D2.5mm_P10.16mm_Horizontal" V 3180 2550 50  0001 C CNN
F 3 "~" H 3250 2550 50  0001 C CNN
	1    3250 2550
	0    1    1    0   
$EndComp
Connection ~ 3400 2550
Wire Wire Line
	3100 2550 2900 2550
Wire Wire Line
	2900 2550 2900 2600
Connection ~ 2900 2600
$Comp
L power:GND #PWR0113
U 1 1 5B718B84
P 2900 2950
F 0 "#PWR0113" H 2900 2700 50  0001 C CNN
F 1 "GND" H 2905 2777 50  0000 C CNN
F 2 "" H 2900 2950 50  0001 C CNN
F 3 "" H 2900 2950 50  0001 C CNN
	1    2900 2950
	1    0    0    -1  
$EndComp
$Comp
L power:GND #PWR0114
U 1 1 5B718BBD
P 2400 3100
F 0 "#PWR0114" H 2400 2850 50  0001 C CNN
F 1 "GND" H 2405 2927 50  0000 C CNN
F 2 "" H 2400 3100 50  0001 C CNN
F 3 "" H 2400 3100 50  0001 C CNN
	1    2400 3100
	1    0    0    -1  
$EndComp
Wire Wire Line
	3100 2750 3100 2600
Wire Wire Line
	3100 2600 2900 2600
$Comp
L Device:C C104
U 1 1 5B71902B
P 1950 2800
F 0 "C104" H 1832 2846 50  0000 R CNN
F 1 "1uF" H 1832 2755 50  0000 R CNN
F 2 "Capacitors_THT:C_Disc_D4.7mm_W2.5mm_P5.00mm" H 1988 2650 50  0001 C CNN
F 3 "~" H 1950 2800 50  0001 C CNN
	1    1950 2800
	0    1    -1   0   
$EndComp
$Comp
L Device:CP C105
U 1 1 5B7190C3
P 2900 2750
F 0 "C105" H 2782 2796 50  0000 R CNN
F 1 "10uF" H 2782 2705 50  0000 R CNN
F 2 "Capacitors_THT:CP_Radial_D5.0mm_P2.50mm" H 2938 2600 50  0001 C CNN
F 3 "~" H 2900 2750 50  0001 C CNN
	1    2900 2750
	-1   0    0    -1  
$EndComp
$Comp
L Connector_Generic:Conn_01x03 J106
U 1 1 5B719195
P 1350 2700
F 0 "J106" H 1430 2742 50  0000 L CNN
F 1 "Conn_01x03" H 1430 2651 50  0000 L CNN
F 2 "Connectors_JST:JST_EH_B03B-EH-A_03x2.50mm_Straight" H 1350 2700 50  0001 C CNN
F 3 "~" H 1350 2700 50  0001 C CNN
	1    1350 2700
	-1   0    0    -1  
$EndComp
$Comp
L power:GND #PWR0115
U 1 1 5B71930E
P 1650 2700
F 0 "#PWR0115" H 1650 2450 50  0001 C CNN
F 1 "GND" H 1655 2527 50  0000 C CNN
F 2 "" H 1650 2700 50  0001 C CNN
F 3 "" H 1650 2700 50  0001 C CNN
	1    1650 2700
	1    0    0    -1  
$EndComp
Wire Wire Line
	1550 2700 1650 2700
$Comp
L power:+10V #PWR0116
U 1 1 5B719860
P 1600 2600
F 0 "#PWR0116" H 1600 2450 50  0001 C CNN
F 1 "+10V" H 1615 2773 50  0000 C CNN
F 2 "" H 1600 2600 50  0001 C CNN
F 3 "" H 1600 2600 50  0001 C CNN
	1    1600 2600
	1    0    0    -1  
$EndComp
Wire Wire Line
	1600 2600 1550 2600
Wire Wire Line
	1550 2800 1800 2800
$Comp
L Device:R R107
U 1 1 5B71B799
P 2100 2950
F 0 "R107" H 2170 2996 50  0000 L CNN
F 1 "100k" H 2170 2905 50  0000 L CNN
F 2 "Resistors_THT:R_Axial_DIN0207_L6.3mm_D2.5mm_P10.16mm_Horizontal" V 2030 2950 50  0001 C CNN
F 3 "~" H 2100 2950 50  0001 C CNN
	1    2100 2950
	1    0    0    -1  
$EndComp
Connection ~ 2100 2800
Wire Wire Line
	2400 3100 2100 3100
Wire Wire Line
	2400 3000 2400 3100
Connection ~ 2400 3100
$Comp
L Device:LED D102
U 1 1 5B71C9F3
P 2550 2600
F 0 "D102" V 2588 2482 50  0000 R CNN
F 1 "LED" V 2497 2482 50  0000 R CNN
F 2 "Connectors_Terminal_Blocks:TerminalBlock_bornier-2_P5.08mm" H 2550 2600 50  0001 C CNN
F 3 "~" H 2550 2600 50  0001 C CNN
	1    2550 2600
	1    0    0    -1  
$EndComp
Wire Wire Line
	2700 2600 2900 2600
$EndSCHEMATC
